Hands on Data Wrangling 🔧
…
.huge-pink[want] .hand[to slice it, and dice it, and juice it, and process it]

---

## `select` to keep variables

.medi[

```r
hotels %>%
* select(hotel, lead_time)
```

```
## # A tibble: 119,390 × 2
##   hotel        lead_time
##   <chr>            <dbl>
## 1 Resort Hotel       342
## 2 Resort Hotel       737
## 3 Resort Hotel         7
## 4 Resort Hotel        13
## 5 Resort Hotel        14
## 6 Resort Hotel        14
## # ℹ 119,384 more rows
```
]
---

## `select` to exclude variables

.small[

```r
hotels %>%
* select(-agent)
```

```
## # A tibble: 119,390 × 31
##   hotel        is_canceled lead_time arrival_date_year
##   <chr>              <dbl>     <dbl>             <dbl>
## 1 Resort Hotel           0       342              2015
## 2 Resort Hotel           0       737              2015
## 3 Resort Hotel           0         7              2015
## 4 Resort Hotel           0        13              2015
## 5 Resort Hotel           0        14              2015
## 6 Resort Hotel           0        14              2015
## # ℹ 119,384 more rows
## # ℹ 27 more variables: arrival_date_month <chr>,
## #   arrival_date_week_number <dbl>,
## #   arrival_date_day_of_month <dbl>,
## #   stays_in_weekend_nights <dbl>, stays_in_week_nights <dbl>,
## #   adults <dbl>, children <dbl>, babies <dbl>, meal <chr>,
## #   country <chr>, market_segment <chr>, …
```
]

---

## `select` a range of variables
.medi[

```r
hotels %>%
* select(hotel:arrival_date_month)
```

```
## # A tibble: 119,390 × 5
##   hotel        is_canceled lead_time arrival_date_year
##   <chr>              <dbl>     <dbl>             <dbl>
## 1 Resort Hotel           0       342              2015
## 2 Resort Hotel           0       737              2015
## 3 Resort Hotel           0         7              2015
## 4 Resort Hotel           0        13              2015
## 5 Resort Hotel           0        14              2015
## 6 Resort Hotel           0        14              2015
## # ℹ 119,384 more rows
## # ℹ 1 more variable: arrival_date_month <chr>
```
]
---

## `select` variables with certain characteristics
.medi[

```r
hotels %>%
* select(starts_with("arrival"))
```

```
## # A tibble: 119,390 × 4
##   arrival_date_year arrival_date_month arrival_date_week_number
##               <dbl> <chr>                                 <dbl>
## 1              2015 July                                     27
## 2              2015 July                                     27
## 3              2015 July                                     27
## 4              2015 July                                     27
## 5              2015 July                                     27
## 6              2015 July                                     27
## # ℹ 119,384 more rows
## # ℹ 1 more variable: arrival_date_day_of_month <dbl>
```
]
---

## `select` variables with certain characteristics
.medi[

```r
hotels %>%
* select(ends_with("type"))
```

```
## # A tibble: 119,390 × 4
##   reserved_room_type assigned_room_type deposit_type
##   <chr>              <chr>              <chr>       
## 1 C                  C                  No Deposit  
## 2 C                  C                  No Deposit  
## 3 A                  C                  No Deposit  
## 4 A                  A                  No Deposit  
## 5 A                  A                  No Deposit  
## 6 A                  A                  No Deposit  
## # ℹ 119,384 more rows
## # ℹ 1 more variable: customer_type <chr>
```
…
---

## `arrange` in ascending / descending order

.pull-left[

```r
hotels %>%
  select(adults, children, babies) %>%
* arrange(babies)
```

```
## # A tibble: 119,390 × 3
##   adults children babies
##    <dbl>    <dbl>  <dbl>
## 1      2        0      0
## 2      2        0      0
## 3      1        0      0
## 4      1        0      0
## 5      2        0      0
## 6      2        0      0
## # ℹ 119,384 more rows
```
]
.pull-right[

```r
hotels %>%
  select(adults, children, babies) %>%
* arrange(desc(babies))
```

```
## # A tibble: 119,390 × 3
##   adults children babies
##    <dbl>    <dbl>  <dbl>
## 1      2        0     10
## 2      1        0      9
## 3      2        0      2
## 4      2        0      2
## 5      2        0      2
## 6      2        0      2
## # ℹ 119,384 more rows
```
…
---

## `filter` to select a subset of rows

.small[

```r
# bookings in City Hotels
hotels %>%
* filter(hotel == "City Hotel")
```

```
## # A tibble: 79,330 × 32
##   hotel      is_canceled lead_time arrival_date_year
##   <chr>            <dbl>     <dbl>             <dbl>
## 1 City Hotel           0         6              2015
## 2 City Hotel           1        88              2015
## 3 City Hotel           1        65              2015
## 4 City Hotel           1        92              2015
## 5 City Hotel           1       100              2015
## 6 City Hotel           1        79              2015
## # ℹ 79,324 more rows
## # ℹ 28 more variables: arrival_date_month <chr>,
## #   arrival_date_week_number <dbl>,
## #   arrival_date_day_of_month <dbl>,
## #   stays_in_weekend_nights <dbl>, stays_in_week_nights <dbl>,
## #   adults <dbl>, children <dbl>, babies <dbl>, meal <chr>,
## #   country <chr>, market_segment <chr>, …
```
…
## `filter` for many conditions at once
.medi[

```r
hotels %>%
  filter( 
*   adults == 0,
*   children >= 1
    ) %>% 
  select(adults, babies, children)
```

```
## # A tibble: 223 × 3
##   adults babies children
##    <dbl>  <dbl>    <dbl>
## 1      0      0        3
## 2      0      0        2
## 3      0      0        2
## 4      0      0        2
## 5      0      0        2
## 6      0      0        3
## # ℹ 217 more rows
```
…
## `filter` for more complex conditions
.midi[

```r
# bookings with no adults and some children or babies in the room
hotels %>%
  filter( 
    adults == 0,     
*   children >= 1 | babies >= 1     # | means or
    ) %>%
  select(adults, babies, children)
```

```
## # A tibble: 223 × 3
##   adults babies children
##    <dbl>  <dbl>    <dbl>
## 1      0      0        3
## 2      0      0        2
## 3      0      0        2
## 4      0      0        2
## 5      0      0        2
## 6      0      0        3
## # ℹ 217 more rows
```
…
---

## `mutate` to add a new variable
.medi[

```r
hotels %>%
* mutate(little_ones = children + babies) %>%
  select(children, babies, little_ones) %>%
  arrange(desc(little_ones))
```

```
## # A tibble: 119,390 × 3
##   children babies little_ones
##      <dbl>  <dbl>       <dbl>
## 1       10      0          10
## 2        0     10          10
## 3        0      9           9
## 4        2      1           3
## 5        2      1           3
## 6        2      1           3
## # ℹ 119,384 more rows
```
…
```r
# Resort Hotel
hotels %>%
  mutate(little_ones = children + babies) %>%
  filter(
    little_ones >= 1,
    hotel == "Resort Hotel"
    ) %>%
  select(hotel, little_ones)
```

```
## # A tibble: 3,929 × 2
##   hotel        little_ones
##   <chr>              <dbl>
## 1 Resort Hotel           1
## 2 Resort Hotel           2
## 3 Resort Hotel           2
## 4 Resort Hotel           2
## 5 Resort Hotel           1
## 6 Resort Hotel           1
## # ℹ 3,923 more rows
```
…
```r
# City Hotel
hotels %>%
  mutate(little_ones = children + babies) %>%
  filter(
    little_ones > 1,
    hotel == "City Hotel"
    )  %>%
  select(hotel, little_ones)
```

```
## # A tibble: 2,140 × 2
##   hotel      little_ones
##   <chr>            <dbl>
## 1 City Hotel           2
## 2 City Hotel           2
## 3 City Hotel           2
## 4 City Hotel           2
## 5 City Hotel           2
## 6 City Hotel           2
## # ℹ 2,134 more rows
```
…
